circumference,length,kind,weight
19.0,59.5,sockeye,5.1
18.0,53.0,sockeye,4.1
28.0,75.5,atlantic,9.1
33.5,89.0,atlantic,15.6
23.5,63.0,atlantic,5.2
19.0,63.5,sockeye,5.4
24.0,70.5,sockeye,7.2
24.5,67.5,sockeye,7.1
23.0,65.0,sockeye,6.7
25.5,73.5,sockeye,8.2
28.0,85.0,atlantic,9.3
24.0,74.0,atlantic,6.4
26.0,82.0,sockeye,8.7
31.0,96.0,atlantic,14.0
24.0,73.0,sockeye,7.5
21.5,59.5,sockeye,6.0
22.5,78.0,sockeye,7.4
34.5,91.0,atlantic,16.2
31.5,90.5,atlantic,12.8
19.0,64.5,sockeye,5.1
28.0,80.0,atlantic,8.9
25.5,79.0,atlantic,8.1
20.5,67.0,atlantic,4.7
23.5,65.5,sockeye,7.2
22.5,78.5,sockeye,7.5
33.5,96.5,atlantic,16.8
29.0,74.5,atlantic,9.4
18.5,63.0,sockeye,4.7
22.0,64.5,atlantic,4.7
23.0,75.0,sockeye,7.5
22.0,78.0,sockeye,6.8
24.5,81.5,sockeye,8.2
27.0,85.0,atlantic,8.5
27.5,86.5,sockeye,10.3
21.0,66.5,sockeye,6.3
23.5,70.0,atlantic,5.8
24.0,75.5,atlantic,6.4
24.0,81.5,sockeye,8.0
22.5,72.0,sockeye,6.5
22.5,68.5,sockeye,7.0
20.5,65.0,sockeye,5.8
24.5,74.5,atlantic,6.9
34.0,103.0,atlantic,16.7
27.0,82.0,sockeye,9.4
24.5,66.0,atlantic,5.7
21.0,75.0,atlantic,4.7
22.0,71.5,sockeye,6.4
19.0,64.5,sockeye,5.3
30.0,91.5,atlantic,11.6
27.0,89.0,sockeye,9.9
24.0,80.0,sockeye,7.8
25.5,84.0,sockeye,8.8
21.0,61.5,atlantic,3.8
21.5,61.0,atlantic,4.4
30.5,84.5,atlantic,10.7
24.5,71.0,atlantic,6.5
22.5,62.5,atlantic,4.5
34.0,101.0,atlantic,17.8
18.0,53.0,sockeye,4.6
27.5,79.5,sockeye,9.8
18.0,66.0,sockeye,4.7
29.0,88.0,atlantic,10.4
32.0,98.5,atlantic,15.4
20.0,70.5,atlantic,4.5
21.0,74.0,sockeye,6.0
18.5,54.0,sockeye,4.6
25.5,85.5,atlantic,8.5
33.0,95.0,atlantic,15.3
20.5,60.5,sockeye,5.5
29.0,77.0,atlantic,9.0
21.5,61.0,sockeye,5.6
25.0,67.5,atlantic,6.8
20.5,77.0,sockeye,6.2
21.0,77.0,sockeye,6.1
24.5,64.0,atlantic,5.6
26.0,72.5,atlantic,6.9
22.0,68.0,atlantic,5.0
32.5,85.5,atlantic,14.0
21.0,76.0,atlantic,5.4
24.5,79.5,sockeye,7.7
19.0,69.5,sockeye,5.2
25.0,81.5,sockeye,8.2
22.0,68.5,atlantic,5.3
22.0,71.5,sockeye,6.9
22.0,62.0,sockeye,6.0
22.0,63.0,sockeye,6.0
20.5,68.0,atlantic,4.2
24.0,65.0,sockeye,7.1
33.5,92.5,atlantic,14.1
27.5,75.5,atlantic,8.4
31.5,81.0,atlantic,12.4
21.5,73.5,atlantic,5.5
28.0,76.5,atlantic,9.4
32.0,84.5,atlantic,12.9
19.0,66.0,sockeye,5.3
24.0,76.0,atlantic,6.7
18.5,67.0,sockeye,5.0
18.0,59.5,sockeye,4.7
20.0,64.5,atlantic,4.1
23.0,75.0,sockeye,7.2
